Week 4 – dataviz-spring-2026
…
the aesthetic mapping of the variables in the data to visual channels, and

the geometry used to translate the observations into marks on the plot.

library(tidyverse)
library(dplyr)
library(palmerpenguins)
#| label: "hi mom"
penguins |>
  select(bill_length_mm,
         flipper_length_mm,
         species)

# A tibble: 344 × 3
   bill_length_mm flipper_length_mm species
            <dbl>             <int> <fct>  
 1           39.1               181 Adelie 
 2           39.5               186 Adelie 
 3           40.3               195 Adelie 
 4           NA                  NA Adelie 
 5           36.7               193 Adelie 
 6           39.3               190 Adelie 
 7           38.9               181 Adelie 
 8           39.2               195 Adelie 
 9           34.1               193 Adelie 
10           42                 190 Adelie 
# ℹ 334 more rows
…
